<?xml version="1.0" encoding="UTF-8" standalone="no"?>
<svg
   xmlns:dc="http://purl.org/dc/elements/1.1/"
   xmlns:cc="http://creativecommons.org/ns#"
   xmlns:rdf="http://www.w3.org/1999/02/22-rdf-syntax-ns#"
   xmlns:svg="http://www.w3.org/2000/svg"
   xmlns="http://www.w3.org/2000/svg"
   xmlns:sodipodi="http://sodipodi.sourceforge.net/DTD/sodipodi-0.dtd"
   xmlns:inkscape="http://www.inkscape.org/namespaces/inkscape"
   viewBox="0 0 102.62096 91.450367"
   height="27.340387mm"
   width="27.340048mm"
   xml:space="preserve"
   id="svg2"
   version="1.1"
   inkscape:version="0.91 r13725"
   sodipodi:docname="code-orange-games-logo.svg"><sodipodi:namedview
     pagecolor="#ffffff"
     bordercolor="#666666"
     borderopacity="1"
     objecttolerance="10"
     gridtolerance="10"
     guidetolerance="10"
     inkscape:pageopacity="0"
     inkscape:pageshadow="2"
     inkscape:window-width="1680"
     inkscape:window-height="988"
     id="namedview3378"
     showgrid="false"
     units="mm"
     fit-margin-top="0"
     fit-margin-left="0"
     fit-margin-right="0"
     fit-margin-bottom="0"
     inkscape:zoom="1.638"
     inkscape:cx="202.46677"
     inkscape:cy="35.457871"
     inkscape:window-x="-8"
     inkscape:window-y="-8"
     inkscape:window-maximized="1"
     inkscape:current-layer="svg2" /><metadata
     id="metadata8"><rdf:RDF><cc:Work
         rdf:about=""><dc:format>image/svg+xml</dc:format><dc:type
           rdf:resource="http://purl.org/dc/dcmitype/StillImage" /><dc:title></dc:title></cc:Work></rdf:RDF></metadata><defs
     id="defs6"><clipPath
       id="clipPath18"
       clipPathUnits="userSpaceOnUse"><path
         id="path16"
         d="M 34.843,806.191 C 21.729,789.468 24.656,765.28 41.379,752.166 l 0,0 c 16.725,-13.114 40.914,-10.186 54.025,6.536 l 0,0 c 13.118,16.725 10.189,40.914 -6.534,54.028 l 0,0 c -7.045,5.524 -15.412,8.202 -23.719,8.202 l 0,0 C 53.735,820.931 42.433,815.873 34.843,806.191"
         inkscape:connector-curvature="0" /></clipPath></defs><g
     transform="matrix(1.3333333,0,0,-1.3333333,-35.522488,1088.9898)"
     id="g10"><g
       id="g12"><g
         clip-path="url(#clipPath18)"
         id="g14"><g
           transform="translate(95.4048,758.7021)"
           id="g20"><path
             id="path22"
             style="fill:#f26c36;fill-opacity:1;fill-rule:nonzero;stroke:none"
             d="M 0,0 C -13.111,-16.723 -37.301,-19.65 -54.025,-6.536 -70.748,6.578 -73.676,30.767 -60.563,47.489 -47.447,64.217 -23.26,67.143 -6.535,54.027 10.188,40.914 13.117,16.726 0,0"
             inkscape:connector-curvature="0" /></g><g
           transform="translate(85.645,797.292)"
           id="g24"><path
             id="path26"
             style="fill:#373535;fill-opacity:1;fill-rule:nonzero;stroke:none"
             d="m 0,0 -3.323,4.808 -5.563,1.776 3.224,2.577 -1.91,4.932 5.311,-3.212 4.382,1.27 L 2.182,7.59 6.801,3.442 1.524,3.834 Z"
             inkscape:connector-curvature="0" /></g><g
           transform="translate(42.3594,794.4917)"
           id="g28"><path
             id="path30"
             style="fill:#ffffff;fill-opacity:1;fill-rule:nonzero;stroke:none"
             d="m 0,0 c 0.082,-0.927 -0.342,-1.431 -1.269,-1.512 l -4.748,-0.416 c -0.901,-0.079 -1.393,0.346 -1.474,1.273 l -1.087,12.433 c -0.082,0.934 0.328,1.44 1.229,1.519 l 4.748,0.415 c 0.927,0.081 1.432,-0.345 1.514,-1.278 l 0.312,-3.561 -2.267,-0.198 -0.264,3.006 -2.947,-0.259 0.989,-11.314 2.949,0.258 -0.281,3.201 2.267,0.199 z"
             inkscape:connector-curvature="0" /></g><g
           transform="translate(50.9941,795.8159)"
           id="g32"><path
             id="path34"
             style="fill:#ffffff;fill-opacity:1;fill-rule:nonzero;stroke:none"
             d="m 0,0 -0.99,11.314 -3.123,-0.273 0.99,-11.314 z M 2.325,-0.365 C 2.406,-1.292 1.987,-1.796 1.066,-1.877 l -4.942,-0.432 c -0.901,-0.079 -1.394,0.345 -1.475,1.272 l -1.086,12.433 c -0.083,0.934 0.328,1.44 1.229,1.52 l 4.942,0.432 c 0.921,0.08 1.422,-0.346 1.504,-1.28 z"
             inkscape:connector-curvature="0" /></g><g
           transform="translate(61.7827,798.0635)"
           id="g36"><path
             id="path38"
             style="fill:#ffffff;fill-opacity:1;fill-rule:nonzero;stroke:none"
             d="M 0,0 -0.766,8.746 C -0.84,9.596 -1.321,9.981 -2.21,9.904 l -1.693,-0.148 0.99,-11.315 1.634,0.143 C -0.352,-1.334 0.075,-0.863 0,0 M 2.318,-0.179 C 2.397,-1.074 2.192,-1.8 1.705,-2.355 1.218,-2.91 0.523,-3.228 -0.378,-3.307 l -4.64,-0.406 -1.332,15.225 4.64,0.406 c 0.901,0.079 1.641,-0.116 2.218,-0.585 0.577,-0.47 0.904,-1.151 0.982,-2.046 z"
             inkscape:connector-curvature="0" /></g><g
           transform="translate(73.9214,795.8516)"
           id="g40"><path
             id="path42"
             style="fill:#ffffff;fill-opacity:1;fill-rule:nonzero;stroke:none"
             d="m 0,0 -6.313,-0.552 -1.333,15.224 6.255,0.548 0.176,-2.014 -3.978,-0.348 0.388,-4.446 3.425,0.299 0.173,-1.975 -3.425,-0.299 0.418,-4.776 4.038,0.353 z"
             inkscape:connector-curvature="0" /></g><g
           transform="translate(48.5967,775.5298)"
           id="g44"><path
             id="path46"
             style="fill:#ffffff;fill-opacity:1;fill-rule:nonzero;stroke:none"
             d="m 0,0 -0.989,11.314 -3.123,-0.273 0.99,-11.314 z M 2.326,-0.365 C 2.407,-1.292 1.987,-1.796 1.066,-1.877 l -4.941,-0.432 c -0.901,-0.079 -1.394,0.346 -1.475,1.272 l -1.087,12.434 c -0.083,0.934 0.329,1.439 1.23,1.519 l 4.941,0.432 c 0.921,0.08 1.422,-0.346 1.504,-1.28 z"
             inkscape:connector-curvature="0" /></g><g
           transform="translate(62.1597,774.7461)"
           id="g48"><path
             id="path50"
             style="fill:#ffffff;fill-opacity:1;fill-rule:nonzero;stroke:none"
             d="m 0,0 -2.373,-0.208 -3.128,6.854 -0.121,1.372 2.238,0.195 -0.422,4.825 -2.87,-0.251 1.161,-13.269 -2.277,-0.2 -1.332,15.225 6.041,0.529 c 0.915,0.08 1.412,-0.347 1.494,-1.281 L -1.104,8.255 C -1.049,7.613 -1.229,7.179 -1.646,6.953 -1.872,6.836 -2.36,6.744 -3.113,6.678 Z"
             inkscape:connector-curvature="0" /></g><g
           transform="translate(69.3003,780.2529)"
           id="g52"><path
             id="path54"
             style="fill:#ffffff;fill-opacity:1;fill-rule:nonzero;stroke:none"
             d="m 0,0 -1.709,6.771 -0.518,-6.966 z m 3.46,-4.579 -2.257,-0.198 -0.71,2.849 -2.85,-0.249 -0.205,-2.929 -2.248,-0.197 -0.002,0.039 1.617,15.463 2.392,0.21 z"
             inkscape:connector-curvature="0" /></g><g
           transform="translate(83.2437,776.5908)"
           id="g56"><path
             id="path58"
             style="fill:#ffffff;fill-opacity:1;fill-rule:nonzero;stroke:none"
             d="M 0,0 -1.994,-0.174 -6.48,9.088 C -6.343,8.63 -6.262,8.267 -6.238,8.002 l 0.742,-8.483 -2.219,-0.194 -1.332,15.225 1.994,0.174 4.47,-9.068 c -0.138,0.458 -0.219,0.821 -0.242,1.087 l -0.725,8.288 2.218,0.194 z"
             inkscape:connector-curvature="0" /></g><g
           transform="translate(93.9751,778.9312)"
           id="g60"><path
             id="path62"
             style="fill:#ffffff;fill-opacity:1;fill-rule:nonzero;stroke:none"
             d="m 0,0 c 0.081,-0.927 -0.343,-1.431 -1.27,-1.512 l -4.786,-0.419 c -0.901,-0.079 -1.393,0.346 -1.474,1.272 l -1.087,12.434 c -0.082,0.933 0.338,1.44 1.259,1.521 l 4.756,0.416 c 0.927,0.081 1.432,-0.345 1.514,-1.278 l 0.284,-3.25 -2.286,-0.201 -0.235,2.696 -2.968,-0.26 0.99,-11.314 2.967,0.259 -0.372,4.261 -1.693,-0.148 -0.169,1.937 3.978,0.348 z"
             inkscape:connector-curvature="0" /></g><g
           transform="translate(103.7241,778.3828)"
           id="g64"><path
             id="path66"
             style="fill:#ffffff;fill-opacity:1;fill-rule:nonzero;stroke:none"
             d="m 0,0 -6.313,-0.553 -1.333,15.225 6.255,0.547 0.176,-2.013 -3.978,-0.349 0.388,-4.446 3.425,0.3 0.173,-1.975 -3.425,-0.299 0.418,-4.777 4.037,0.354 z"
             inkscape:connector-curvature="0" /></g><g
           transform="translate(45.5713,754.6201)"
           id="g68"><path
             id="path70"
             style="fill:#ffffff;fill-opacity:1;fill-rule:nonzero;stroke:none"
             d="m 0,0 c 0.081,-0.927 -0.341,-1.431 -1.269,-1.513 l -4.787,-0.418 c -0.901,-0.079 -1.392,0.345 -1.473,1.272 l -1.088,12.433 c -0.082,0.934 0.338,1.441 1.259,1.522 l 4.757,0.416 c 0.928,0.081 1.432,-0.345 1.514,-1.278 l 0.284,-3.25 -2.286,-0.201 -0.236,2.696 -2.967,-0.26 0.989,-11.315 2.968,0.26 -0.373,4.261 -1.692,-0.148 -0.17,1.937 3.979,0.348 z"
             inkscape:connector-curvature="0" /></g><g
           transform="translate(53.2617,758.7734)"
           id="g72"><path
             id="path74"
             style="fill:#ffffff;fill-opacity:1;fill-rule:nonzero;stroke:none"
             d="m 0,0 -1.709,6.771 -0.519,-6.966 z m 3.46,-4.579 -2.257,-0.198 -0.71,2.849 -2.85,-0.249 -0.206,-2.929 -2.247,-0.197 -0.002,0.038 1.617,15.464 2.393,0.21 z"
             inkscape:connector-curvature="0" /></g><g
           transform="translate(68.6929,755.2417)"
           id="g76"><path
             id="path78"
             style="fill:#ffffff;fill-opacity:1;fill-rule:nonzero;stroke:none"
             d="m 0,0 -2.189,-0.192 -0.657,7.51 C -2.881,7.714 -2.884,8.27 -2.854,8.984 L -4.14,1.039 -5.298,0.937 -7.952,8.539 c 0.153,-0.712 0.247,-1.26 0.281,-1.643 l 0.657,-7.51 -2.189,-0.191 -1.332,15.224 2.15,0.188 3.129,-8.205 C -5.223,6.313 -5.183,6.084 -5.137,5.716 -5.151,5.878 -5.151,6.11 -5.139,6.412 l 1.657,8.625 2.15,0.188 z"
             inkscape:connector-curvature="0" /></g><g
           transform="translate(78.3198,756.084)"
           id="g80"><path
             id="path82"
             style="fill:#ffffff;fill-opacity:1;fill-rule:nonzero;stroke:none"
             d="m 0,0 -6.313,-0.553 -1.333,15.225 6.255,0.547 0.177,-2.013 -3.979,-0.349 0.389,-4.446 3.424,0.3 0.173,-1.975 -3.424,-0.299 0.418,-4.777 4.037,0.354 z"
             inkscape:connector-curvature="0" /></g><g
           transform="translate(88.5454,758.3799)"
           id="g84"><path
             id="path86"
             style="fill:#ffffff;fill-opacity:1;fill-rule:nonzero;stroke:none"
             d="m 0,0 c 0.081,-0.927 -0.339,-1.431 -1.259,-1.512 l -4.583,-0.401 c -0.914,-0.08 -1.412,0.344 -1.493,1.271 l -0.317,3.629 2.276,0.199 0.272,-3.103 2.782,0.243 -0.261,2.987 -4.941,3.92 c -0.359,0.289 -0.559,0.68 -0.603,1.173 l -0.296,3.386 c -0.082,0.933 0.335,1.44 1.249,1.52 l 4.583,0.401 c 0.92,0.08 1.421,-0.339 1.502,-1.261 l 0.298,-3.404 -2.276,-0.199 -0.251,2.87 -2.784,-0.244 0.242,-2.754 4.939,-3.9 c 0.358,-0.283 0.559,-0.679 0.604,-1.192 z"
             inkscape:connector-curvature="0" /></g></g></g></g></svg>